…
# compute local stability importances and lo-siRF p-values
results <- local_rf_stability_importance(
  rf_fit = irf_fit$rf.list,
  X = X_test,
  y = y_test,
  ints = irf_interactions$int,
)

# lo-siRF feature importance results
results$feature_stability_pvals
#> # A tibble: 200 × 4
#>    feature   pval     T_obs perm_dist     
#>    <chr>    <dbl>     <dbl> <list>        
#>  1 V1+     0.553  -0.00289  <dbl [10,000]>
#>  2 V2+     0.644  -0.00286  <dbl [10,000]>
#>  3 V3+     0.0917 -0.00615  <dbl [10,000]>
#>  4 V4+     0.817   0.000786 <dbl [10,000]>
#>  5 V5+     0.800   0.00125  <dbl [10,000]>
#>  6 V6+     0.0479 -0.00577  <dbl [10,000]>
#>  7 V7+     0.0464 -0.0100   <dbl [10,000]>
#>  8 V8+     0.126  -0.00383  <dbl [10,000]>
#>  9 V9+     0.745   0.00316  <dbl [10,000]>
#> 10 V10+    0.350   0.00332  <dbl [10,000]>
#> # ℹ 190 more rows
…
# interaction candidates from siRF output
irf_interactions <- tibble::as_tibble(irf_fit$interaction)
irf_interactions
#> # A tibble: 27 × 10
#>    int         prevalence precision   cpe sta.cpe     fsd sta.fsd    mip sta.mip
#>    <chr>            <dbl>     <dbl> <dbl>   <dbl>   <dbl>   <dbl>  <dbl>   <dbl>
#>  1 V1+_V2+_V3…     0.0788     0.779 1.98        1  0.429     1    0.0568       1
#>  2 V1+_V2+_V4+     0.0806     0.736 1.75        1  0.270     1    0.157        1
#>  3 V1+_V3+_V4+     0.174      0.677 1.46        1  0.173     1    0.0729       1
#>  4 V1+_V2+_V3+     0.134      0.630 1.26        1  0.339     1    0.125        1
#>  5 V1+_V4+         0.177      0.629 1.25        1  0.0118    0.64 0.302        1
#>  6 V2+_V3+_V4+     0.152      0.626 1.24        1 -0.0374    0.12 0.116        1
#>  7 V2+_V46-        0.0165     0.568 0.999       1  0.307     1    0.226        1
#>  8 V3+_V4+         0.515      0.557 0.951       1  0.138     1    0.218        1
#>  9 V1+_V3+         0.281      0.556 0.947       1  0.0325    1    0.178        1
#> 10 V3+_V46-        0.0316     0.552 0.932       1  0.0909    1    0.187        1
#> # ℹ 17 more rows
#> # ℹ 1 more variable: stability <dbl>
…
